Order-Id,Item-id,Product-Id,Quantity,Sales-Id,Customer-Id,Sales-Price-Per-Prod,Market-Segment
0,0,8,14,8,19,137,financial
1,1,6,26,7,10,50,pharmaceutical
2,2,18,13,3,6,82,pharmaceutical
3,3,18,12,4,28,101,software
4,4,13,25,2,2,124,software
5,5,8,26,6,24,201,realestate
6,6,19,23,0,24,82,realestate
7,7,17,3,8,5,184,software
8,8,16,8,0,9,149,software
9,9,19,24,4,20,89,software
10,10,13,19,0,24,110,pharmaceutical
11,11,9,17,4,28,78,pharmaceutical
12,12,3,8,5,28,198,retail
13,13,16,4,9,12,151,pharmaceutical
14,14,8,3,8,16,192,financial
15,15,4,5,0,13,159,pharmaceutical
16,16,16,5,5,13,153,retail
17,17,8,7,1,11,162,education
18,18,3,1,8,11,194,realestate
19,19,8,14,1,22,190,realestate
20,20,15,27,9,12,211,pharmaceutical
21,21,6,0,6,28,66,software
22,22,19,10,7,11,99,financial
23,23,7,23,5,13,137,financial
24,24,6,15,6,17,41,retail
25,25,10,16,0,2,107,education
26,26,9,1,4,22,74,realestate
27,27,6,21,6,11,50,education
28,28,14,25,2,20,178,software
29,29,17,0,1,27,187,realestate
30,30,18,1,2,20,87,financial
31,31,13,28,7,15,86,retail
32,32,9,0,1,20,55,education
33,33,16,5,4,15,152,pharmaceutical
34,34,4,16,9,5,132,pharmaceutical
35,35,13,12,1,18,135,pharmaceutical
36,36,9,24,3,18,105,software
37,37,0,10,5,8,123,retail
38,38,7,13,6,26,151,pharmaceutical
39,39,11,5,4,20,135,software
40,40,16,25,7,8,147,financial
41,41,16,20,1,10,148,retail
42,42,6,1,9,4,62,retail
43,43,0,18,0,22,119,education
44,44,2,7,7,28,203,retail
45,45,19,19,6,29,83,retail
46,46,1,26,1,7,161,education
47,47,19,4,6,7,117,financial
48,48,16,28,0,12,156,pharmaceutical
49,49,2,18,5,24,202,education
50,50,0,18,6,14,119,education
51,51,19,15,0,15,109,financial
52,52,15,19,0,7,209,software
53,53,17,0,9,28,198,software
54,54,1,7,2,20,230,realestate
55,55,15,1,8,16,191,financial
56,56,10,2,0,27,152,software
57,57,1,22,7,12,205,software
58,58,17,27,6,17,187,retail
59,59,12,4,6,9,100,pharmaceutical
60,60,0,3,9,20,121,pharmaceutical
61,61,1,18,6,8,167,pharmaceutical
62,62,0,16,6,27,119,financial
63,63,4,26,2,14,146,software
64,64,18,25,7,26,78,pharmaceutical
65,65,15,0,9,2,219,realestate
66,66,1,7,1,27,229,pharmaceutical
67,67,17,28,2,18,198,financial
68,68,9,10,1,16,75,education
69,69,11,25,5,28,102,software
70,70,7,9,3,10,119,realestate
71,71,10,1,5,13,141,financial
72,72,16,5,4,27,147,realestate
73,73,11,1,4,8,115,education
74,74,19,7,5,15,73,financial
75,75,18,10,4,29,59,software
76,76,13,17,6,27,116,retail
77,77,1,5,5,17,233,education
78,78,14,8,7,1,199,retail
79,79,16,8,5,5,162,retail
80,80,14,8,8,11,183,retail
81,81,9,5,1,12,47,financial
82,82,17,27,5,8,191,software
83,83,10,16,1,12,107,financial
84,84,16,11,1,9,150,retail
85,85,4,8,3,0,170,software
86,86,4,5,4,9,140,financial
87,87,9,12,7,19,61,education
88,88,8,24,6,4,135,software
89,89,16,13,6,28,146,retail
90,90,16,0,2,22,155,pharmaceutical
91,91,3,23,9,6,206,education
92,92,9,16,1,6,75,financial
93,93,18,12,3,23,54,financial
94,94,17,29,2,2,190,realestate
95,95,11,15,7,22,109,retail
96,96,10,13,3,4,109,pharmaceutical
97,97,5,19,2,7,127,education
98,98,0,9,4,26,121,retail
99,99,16,26,8,15,155,pharmaceutical
100,100,12,29,8,10,107,software
101,101,12,12,1,14,79,software
102,102,2,19,7,5,201,software
103,103,12,0,0,14,107,financial
104,104,9,7,2,5,103,realestate
105,105,18,13,3,23,100,pharmaceutical
106,106,12,4,2,27,79,education
107,107,8,12,7,7,208,software
108,108,13,26,2,11,110,software
109,109,7,7,9,21,131,financial
110,110,3,12,1,5,176,education
111,111,14,2,6,16,185,financial
112,112,6,18,0,13,38,retail
113,113,15,9,5,5,218,retail
114,114,15,24,3,27,202,realestate
115,115,17,1,4,19,188,software
116,116,15,16,5,29,207,education
117,117,12,15,9,14,79,retail
118,118,12,9,2,29,80,realestate
119,119,10,27,1,26,150,retail
120,120,4,2,6,16,163,software
121,121,8,27,4,12,177,realestate
122,122,16,8,0,3,149,financial
123,123,7,23,6,3,167,education
124,124,9,2,2,4,87,realestate
125,125,1,19,9,8,221,financial
126,126,16,18,5,4,148,pharmaceutical
127,127,10,12,4,3,113,education
128,128,18,27,7,16,91,software
129,129,14,9,9,15,197,retail
130,130,6,1,2,14,74,retail
131,131,4,1,4,24,188,pharmaceutical
132,132,4,8,5,15,156,realestate
133,133,11,2,4,18,113,software
134,134,12,7,5,11,98,pharmaceutical
135,135,16,12,3,22,155,realestate
136,136,18,26,6,15,59,pharmaceutical
137,137,2,18,8,12,212,realestate
138,138,4,11,2,25,184,financial
139,139,0,6,6,29,123,education
140,140,2,3,9,14,204,pharmaceutical
141,141,12,18,0,14,80,realestate
142,142,13,14,3,23,88,financial
143,143,9,2,2,5,81,software
144,144,14,24,4,13,188,financial
145,145,14,7,7,25,181,education
146,146,14,6,6,1,182,financial
147,147,4,28,1,1,160,pharmaceutical
148,148,8,7,2,21,169,financial
149,149,16,23,9,0,156,education
150,150,17,25,5,0,195,education
151,151,17,19,2,19,201,pharmaceutical
152,152,15,22,6,16,190,pharmaceutical
153,153,12,13,1,6,87,pharmaceutical
154,154,17,12,4,3,185,education
155,155,12,26,4,16,83,financial
156,156,12,18,5,24,92,pharmaceutical
157,157,5,16,1,16,108,education
158,158,17,14,7,17,183,retail
159,159,12,15,4,13,96,education
160,160,1,15,8,11,163,software
161,161,12,7,6,27,87,education
162,162,3,14,5,12,208,education
163,163,7,4,4,6,160,education
164,164,15,4,8,9,216,education
165,165,8,2,0,16,136,retail
166,166,10,23,3,4,111,software
167,167,16,9,4,25,155,realestate
168,168,3,19,8,10,195,education
169,169,18,4,5,12,91,software
170,170,8,13,8,29,132,software
171,171,19,14,5,26,73,software
172,172,0,25,7,15,121,retail
173,173,12,10,0,18,81,realestate
174,174,19,29,0,10,92,financial
175,175,7,24,9,8,134,software
176,176,17,6,4,10,186,education
177,177,15,10,4,7,217,financial
178,178,10,20,0,19,154,software
179,179,15,7,6,6,206,pharmaceutical
180,180,3,15,6,8,204,realestate
181,181,12,1,6,18,101,realestate
182,182,19,20,7,3,78,pharmaceutical
183,183,19,17,8,12,90,realestate
184,184,12,19,0,0,106,retail
185,185,15,15,5,12,200,education
186,186,9,21,4,17,55,education
187,187,6,21,6,4,83,education
188,188,2,9,6,14,208,pharmaceutical
189,189,14,11,5,13,186,software
190,190,1,4,6,12,160,realestate
191,191,17,8,5,9,189,education
192,192,11,22,9,1,117,financial
193,193,13,8,3,20,104,realestate
194,194,14,7,4,2,191,retail
195,195,11,13,0,16,106,retail
196,196,3,5,2,29,173,education
197,197,4,17,7,13,171,retail
198,198,2,22,5,7,205,retail
199,199,16,12,0,21,150,software
200,200,17,0,7,11,191,pharmaceutical
201,201,12,18,6,25,86,financial
202,202,4,24,8,13,148,financial
203,203,5,21,6,28,125,education
204,204,7,20,7,9,161,pharmaceutical
205,205,11,10,2,14,132,software
206,206,16,4,5,28,148,pharmaceutical
207,207,17,18,8,24,203,pharmaceutical
208,208,16,12,9,9,155,pharmaceutical
209,209,6,11,7,23,77,education
210,210,10,25,9,4,92,financial
211,211,18,11,6,26,77,pharmaceutical
212,212,7,17,6,12,125,education
213,213,8,16,5,7,207,realestate
214,214,11,6,1,27,133,software
215,215,3,9,0,15,198,software
216,216,7,21,7,27,165,realestate
217,217,16,4,2,26,154,pharmaceutical
218,218,10,26,9,3,149,education
219,219,2,7,2,12,199,pharmaceutical
220,220,19,23,5,24,102,education
221,221,13,13,2,17,113,pharmaceutical
222,222,10,0,3,6,107,software
223,223,6,19,0,7,51,realestate
224,224,5,5,9,7,117,realestate
225,225,18,14,0,15,97,realestate
226,226,12,14,5,10,108,software
227,227,10,4,8,22,110,software
228,228,6,3,9,27,61,education
229,229,10,11,2,13,119,software
230,230,10,24,5,21,120,education
231,231,5,27,9,19,120,pharmaceutical
232,232,7,11,2,13,120,retail
233,233,6,24,7,6,80,financial
234,234,11,11,0,26,107,pharmaceutical
235,235,14,25,2,4,191,software
236,236,3,26,1,10,206,realestate
237,237,18,6,0,20,77,retail
238,238,6,11,7,19,41,software
239,239,18,4,9,28,94,pharmaceutical
240,240,9,2,0,23,80,realestate
241,241,18,9,8,28,94,realestate
242,242,11,4,0,18,106,pharmaceutical
243,243,13,25,7,7,127,retail
244,244,2,0,0,20,215,financial
245,245,17,14,1,17,200,pharmaceutical
246,246,19,10,4,10,90,software
247,247,10,2,1,3,112,education
248,248,1,8,0,8,161,retail
249,249,4,3,4,7,145,pharmaceutical
250,250,4,26,3,13,159,retail
251,251,2,5,8,2,215,realestate
252,252,15,2,4,19,206,realestate
253,253,1,27,2,24,191,education
254,254,10,26,2,9,111,software
255,255,19,12,0,23,88,realestate
256,256,10,28,3,9,108,realestate
257,257,15,27,6,2,182,realestate
258,258,13,20,9,10,136,retail
259,259,14,14,4,25,198,retail
260,260,1,23,7,2,193,pharmaceutical
261,261,7,7,8,20,147,realestate
262,262,5,28,7,1,121,education
263,263,11,20,7,5,128,education
264,264,6,1,5,1,47,financial
265,265,13,8,2,24,120,education
266,266,18,22,8,1,97,realestate
267,267,19,11,8,25,110,realestate
268,268,0,3,5,15,120,financial
269,269,0,3,2,25,119,financial
270,270,1,16,7,9,192,retail
271,271,7,21,2,19,130,retail
272,272,12,16,8,6,97,education
273,273,17,16,2,9,200,pharmaceutical
274,274,8,12,1,27,187,financial
275,275,0,11,6,4,120,pharmaceutical
276,276,19,4,4,20,98,software
277,277,10,28,9,20,114,realestate
278,278,5,2,3,19,124,software
279,279,11,2,1,13,131,pharmaceutical
280,280,2,17,4,22,214,pharmaceutical
281,281,15,25,9,25,186,pharmaceutical
282,282,8,2,0,17,155,retail
283,283,11,28,9,23,92,education
284,284,6,29,3,15,86,software
285,285,2,10,0,2,206,retail
286,286,12,24,9,6,106,pharmaceutical
287,287,11,28,7,0,95,financial
288,288,15,0,7,7,200,education
289,289,12,21,8,10,95,pharmaceutical
290,290,16,9,5,18,153,retail
291,291,13,15,4,23,109,financial
292,292,16,25,3,26,153,retail
293,293,5,24,6,12,110,software
294,294,2,7,4,25,215,financial
295,295,17,11,7,28,191,software
296,296,13,1,7,29,105,pharmaceutical
297,297,5,17,3,9,137,retail
298,298,16,0,0,12,150,education
299,299,18,3,4,17,87,realestate
300,300,18,20,4,19,73,software
301,301,1,2,1,3,221,retail
302,302,15,13,9,0,210,realestate
303,303,19,11,8,9,108,education
304,304,15,29,0,7,208,pharmaceutical
305,305,1,8,8,18,160,pharmaceutical
306,306,6,0,2,22,72,realestate
307,307,15,25,2,22,197,pharmaceutical
308,308,9,19,5,29,86,realestate
309,309,7,7,6,26,155,realestate
310,310,4,24,9,5,161,software
311,311,7,1,2,27,131,financial
312,312,17,27,1,6,202,software
313,313,13,26,7,3,114,realestate
314,314,10,5,5,10,133,financial
315,315,2,26,1,24,213,software
316,316,3,4,1,17,191,software
317,317,0,18,9,8,120,pharmaceutical
318,318,0,28,4,13,119,retail
319,319,2,11,7,26,216,financial
320,320,15,11,2,6,180,retail
321,321,9,1,6,8,101,pharmaceutical
322,322,2,26,2,4,217,financial
323,323,2,23,7,9,218,realestate
324,324,11,28,1,25,118,financial
325,325,10,10,2,23,102,software
326,326,16,3,2,25,151,software
327,327,0,22,2,16,122,financial
328,328,5,3,6,18,98,pharmaceutical
329,329,13,19,2,24,144,software
330,330,19,17,2,21,77,software
331,331,16,1,7,19,159,software
332,332,16,2,8,24,154,realestate
333,333,10,0,7,21,114,pharmaceutical
334,334,2,18,2,22,215,retail
335,335,0,6,4,8,122,financial
336,336,1,23,8,24,163,realestate
337,337,19,8,2,26,117,financial
338,338,17,25,9,19,190,financial
339,339,3,8,1,24,166,education
340,340,6,18,9,1,55,financial
341,341,17,29,7,0,205,realestate
342,342,9,24,3,26,93,pharmaceutical
343,343,1,13,5,13,156,education
344,344,18,9,2,21,65,education
345,345,5,4,6,10,100,pharmaceutical
346,346,14,18,3,13,184,realestate
347,347,13,4,7,8,111,retail
348,348,16,27,6,11,157,retail
349,349,12,25,2,2,102,financial
350,350,14,22,6,22,181,software
351,351,9,11,2,17,81,financial
352,352,14,23,8,9,185,retail
353,353,5,18,1,23,127,software
354,354,7,15,3,8,119,software
355,355,9,14,9,22,82,financial
356,356,18,28,5,11,73,pharmaceutical
357,357,1,27,3,29,218,software
358,358,8,12,6,20,136,pharmaceutical
359,359,7,1,0,25,129,realestate
360,360,13,27,5,6,134,realestate
361,361,3,0,5,17,177,financial
362,362,13,0,4,27,110,software
363,363,6,26,8,8,79,realestate
364,364,8,25,6,5,119,realestate
365,365,18,13,7,0,87,financial
366,366,4,11,7,22,175,realestate
367,367,2,2,6,22,208,financial
368,368,7,23,6,24,123,education
369,369,14,5,5,13,181,retail
370,370,9,4,2,10,52,financial
371,371,6,20,0,2,43,retail
372,372,16,28,6,12,150,software
373,373,14,3,7,12,181,financial
374,374,6,20,5,12,72,software
375,375,14,10,8,25,178,software
376,376,17,7,4,0,189,realestate
377,377,8,2,8,6,119,software
378,378,11,24,0,6,93,education
379,379,17,6,2,13,183,financial
380,380,19,26,7,26,111,realestate
381,381,13,11,4,4,95,pharmaceutical
382,382,2,26,3,4,203,education
383,383,0,8,1,26,119,realestate
384,384,1,19,8,13,177,software
385,385,17,29,5,18,205,pharmaceutical
386,386,2,1,2,6,207,realestate
387,387,13,27,3,28,136,software
388,388,17,19,9,0,191,realestate
389,389,11,0,7,11,128,education
390,390,19,0,9,3,106,realestate
391,391,18,2,9,18,101,software
392,392,1,14,3,26,172,retail
393,393,9,25,6,0,70,financial
394,394,14,7,3,20,191,financial
395,395,6,24,3,26,69,financial
396,396,0,7,2,10,123,education
397,397,5,4,7,0,133,software
398,398,7,20,4,19,153,retail
399,399,10,23,0,4,127,retail
400,400,7,2,5,7,147,retail
401,401,16,5,9,3,146,retail
402,402,5,18,4,28,118,software
403,403,5,28,4,27,131,education
404,404,16,2,9,14,155,pharmaceutical
405,405,4,6,1,7,161,software
406,406,4,8,8,24,184,pharmaceutical
407,407,6,9,9,15,51,financial
408,408,11,3,5,20,112,financial
409,409,11,4,2,2,100,financial
410,410,6,12,1,21,68,financial
411,411,19,6,0,5,115,retail
412,412,2,19,0,14,217,education
413,413,19,3,9,16,116,financial
414,414,16,20,8,6,155,education
415,415,14,13,5,9,185,education
416,416,3,8,3,9,172,pharmaceutical
417,417,5,8,7,23,114,realestate
418,418,8,29,4,0,124,education
419,419,16,12,6,1,159,pharmaceutical
420,420,3,12,0,0,186,retail
421,421,18,25,0,25,103,software
422,422,14,15,3,25,179,financial
423,423,19,28,8,7,96,education
424,424,14,13,3,4,188,software
425,425,0,26,7,3,123,financial
426,426,3,8,5,12,196,pharmaceutical
427,427,10,22,8,24,104,pharmaceutical
428,428,1,27,6,1,229,financial
429,429,7,18,6,15,139,retail
430,430,14,8,8,9,181,realestate
431,431,4,4,7,6,168,retail
432,432,9,20,9,22,43,education
433,433,15,21,7,16,200,realestate
434,434,14,28,7,10,188,financial
435,435,5,17,1,4,128,retail
436,436,14,7,8,27,187,retail
437,437,3,19,2,0,216,pharmaceutical
438,438,16,18,9,0,146,pharmaceutical
439,439,16,18,5,26,149,software
440,440,12,8,4,16,109,retail
441,441,11,14,3,0,102,retail
442,442,3,9,0,15,201,education
443,443,17,2,2,7,189,education
444,444,11,10,3,17,136,retail
445,445,11,13,9,14,141,software
446,446,13,16,2,14,123,realestate
447,447,12,2,0,2,96,education
448,448,13,27,3,2,140,pharmaceutical
449,449,0,9,7,29,122,software
450,450,9,2,3,14,98,realestate
451,451,5,20,4,13,139,financial
452,452,6,24,0,11,77,pharmaceutical
453,453,8,26,3,29,208,pharmaceutical
454,454,3,29,5,18,179,realestate
455,455,3,17,7,8,179,education
456,456,15,15,0,5,201,education
457,457,7,17,5,8,157,software
458,458,0,28,6,12,123,software
459,459,8,10,2,17,207,pharmaceutical
460,460,11,15,0,6,128,financial
461,461,17,11,4,2,187,education
462,462,9,22,5,16,62,software
463,463,7,27,1,0,151,pharmaceutical
464,464,11,12,6,3,135,education
465,465,16,0,3,10,158,realestate
466,466,3,18,3,10,213,pharmaceutical
467,467,0,7,3,21,123,realestate
468,468,2,2,3,13,209,software
469,469,17,13,7,0,196,realestate
470,470,13,16,7,1,124,financial
471,471,16,9,1,25,158,pharmaceutical
472,472,11,11,8,29,132,retail
473,473,11,1,1,13,95,financial
474,474,17,7,4,29,203,realestate
475,475,5,29,4,19,122,education
476,476,11,14,1,25,96,pharmaceutical
477,477,4,17,7,28,168,pharmaceutical
478,478,19,27,4,19,98,education
479,479,5,11,2,16,114,software
480,480,10,0,9,5,97,pharmaceutical
481,481,4,16,6,15,194,software
482,482,0,24,7,24,120,retail
483,483,4,18,2,18,157,realestate
484,484,8,19,9,29,158,software
485,485,5,9,4,6,135,pharmaceutical
486,486,8,8,0,28,165,education
487,487,9,29,9,27,101,education
488,488,16,24,0,21,150,software
489,489,16,7,4,6,151,retail
490,490,13,15,5,29,109,pharmaceutical
491,491,9,3,2,22,88,education
492,492,11,19,4,7,121,realestate
493,493,14,20,4,6,198,education
494,494,0,8,0,23,122,realestate
495,495,7,26,4,15,162,pharmaceutical
496,496,0,5,2,23,119,software
497,497,19,25,8,10,97,education
498,498,5,3,8,4,121,retail
499,499,19,19,7,13,86,software
500,500,0,25,8,10,119,software
501,501,8,22,9,26,125,retail
502,502,7,20,5,10,159,financial
503,503,11,0,3,25,131,pharmaceutical
504,504,12,20,1,6,100,education
505,505,17,1,5,1,186,retail
506,506,17,27,3,7,189,financial
507,507,1,19,3,15,158,realestate
508,508,18,17,8,0,64,retail
509,509,6,14,1,11,66,pharmaceutical
510,510,16,25,8,4,153,pharmaceutical
511,511,14,28,5,11,181,education
512,512,10,13,8,26,153,retail
513,513,7,19,4,20,135,realestate
514,514,2,19,2,11,206,software
515,515,1,27,6,12,235,education
516,516,15,11,0,2,208,retail
517,517,15,26,7,13,199,retail
518,518,8,10,3,17,181,pharmaceutical
519,519,14,11,8,0,198,pharmaceutical
520,520,18,28,2,28,65,realestate
521,521,13,4,5,21,144,pharmaceutical
522,522,1,11,1,17,167,education
523,523,10,24,4,23,151,realestate
524,524,3,25,3,14,212,education
525,525,18,16,7,5,77,realestate
526,526,4,11,5,3,140,education
527,527,1,17,3,27,192,financial
528,528,17,5,4,0,190,retail
529,529,3,8,2,18,166,software
530,530,4,5,6,19,150,software
531,531,3,0,1,11,209,pharmaceutical
532,532,12,10,0,5,78,software
533,533,8,16,7,12,186,financial
534,534,2,6,7,7,209,retail
535,535,13,4,7,8,110,financial
536,536,11,24,2,22,130,education
537,537,10,2,1,14,157,realestate
538,538,14,11,0,9,192,software
539,539,19,6,4,1,75,financial
540,540,16,25,0,14,147,software
541,541,1,29,5,19,224,realestate
542,542,7,9,9,13,161,realestate
543,543,6,27,2,21,51,retail
544,544,10,28,3,17,127,software
545,545,6,1,7,21,75,pharmaceutical
546,546,3,21,8,25,200,realestate
547,547,12,21,8,13,104,software
548,548,17,15,9,4,196,retail
549,549,12,21,1,8,94,pharmaceutical
550,550,12,21,5,12,94,education
551,551,9,20,2,26,102,education
552,552,4,12,8,25,152,education
553,553,19,24,4,16,119,retail
554,554,5,18,0,12,132,pharmaceutical
555,555,10,23,4,14,104,realestate
556,556,7,3,2,19,149,education
557,557,10,11,8,12,130,retail
558,558,11,27,0,29,115,realestate
559,559,1,10,7,0,225,pharmaceutical
560,560,16,22,3,13,157,education
561,561,10,11,7,13,145,retail
562,562,11,25,8,19,124,financial
563,563,14,25,8,7,184,financial
564,564,2,12,3,6,200,pharmaceutical
565,565,11,18,3,15,140,pharmaceutical
566,566,6,4,8,1,38,financial
567,567,5,29,0,12,116,realestate
568,568,5,16,0,20,129,retail
569,569,14,18,3,25,181,education
570,570,18,16,8,21,70,retail
571,571,17,16,1,23,188,retail
572,572,5,10,1,7,116,education
573,573,18,3,2,18,78,retail
574,574,5,19,9,5,101,financial
575,575,10,26,6,28,97,retail
576,576,9,29,0,13,63,financial
577,577,13,24,3,20,101,education
578,578,10,16,8,6,139,retail
579,579,9,19,8,15,45,pharmaceutical
580,580,11,27,4,1,112,retail
581,581,7,20,5,14,146,education
582,582,2,4,3,21,207,software
583,583,16,2,6,2,148,pharmaceutical
584,584,15,27,9,12,193,pharmaceutical
585,585,10,8,8,10,132,education
586,586,0,6,7,29,120,education
587,587,16,15,9,25,151,financial
588,588,5,27,1,16,104,software
589,589,1,0,0,15,184,realestate
590,590,11,13,2,5,137,retail
591,591,18,20,4,19,51,software
592,592,17,11,6,19,205,education
593,593,2,28,7,18,211,pharmaceutical
594,594,19,29,2,23,83,pharmaceutical
595,595,2,13,7,10,214,retail
596,596,14,20,1,16,178,software
597,597,19,27,6,3,93,financial
598,598,4,12,3,26,138,software
599,599,0,4,0,11,123,education
600,600,18,6,2,14,51,software
601,601,5,3,1,10,104,software
602,602,10,16,3,12,114,education
603,603,1,17,2,21,186,realestate
604,604,5,3,8,23,109,realestate
605,605,4,1,6,13,147,financial
606,606,0,24,8,14,120,software
607,607,10,7,7,19,143,realestate
608,608,4,28,4,4,162,retail
609,609,11,14,2,2,141,realestate
610,610,0,7,4,11,122,realestate
611,611,0,27,8,14,122,education
612,612,9,9,9,18,52,financial
613,613,4,21,6,5,160,pharmaceutical
614,614,15,22,6,6,195,education
615,615,7,24,3,6,139,realestate
616,616,14,13,4,25,195,software
617,617,6,16,7,22,54,financial
618,618,12,14,4,16,78,realestate
619,619,10,3,0,9,124,software
620,620,4,21,2,11,172,financial
621,621,11,28,0,7,96,retail
622,622,3,25,1,3,174,financial
623,623,4,27,2,14,170,software
624,624,7,19,9,29,135,education
625,625,4,22,2,16,180,financial
626,626,16,0,8,23,157,financial
627,627,1,25,0,3,185,financial
628,628,7,22,5,15,147,education
629,629,7,22,5,18,139,retail
630,630,18,10,3,19,102,retail
631,631,1,18,7,2,223,pharmaceutical
632,632,5,2,4,17,139,retail
633,633,6,2,0,23,45,education
634,634,9,20,1,9,68,education
635,635,13,6,6,23,146,pharmaceutical
636,636,3,15,9,22,209,realestate
637,637,7,13,2,23,130,pharmaceutical
638,638,13,8,7,18,136,retail
639,639,5,3,6,26,133,realestate
640,640,14,14,0,19,190,financial
641,641,18,26,4,5,95,education
642,642,0,5,6,3,120,software
643,643,17,13,0,4,189,financial
644,644,15,6,1,7,216,financial
645,645,0,2,3,19,119,retail
646,646,12,29,0,13,78,software
647,647,19,20,9,2,104,financial
648,648,14,20,1,19,187,software
649,649,6,4,5,19,59,software
650,650,2,14,2,22,215,financial
651,651,14,18,9,20,194,software
652,652,8,11,1,6,198,retail
653,653,4,5,7,16,141,financial
654,654,11,12,2,22,140,software
655,655,9,9,5,13,87,retail
656,656,2,26,1,10,203,financial
657,657,7,29,6,26,150,education
658,658,1,23,0,27,171,software
659,659,5,13,6,16,98,financial
660,660,15,4,9,29,207,retail
661,661,11,26,7,14,141,realestate
662,662,14,7,3,29,180,software
663,663,12,19,4,6,79,software
664,664,2,17,4,9,208,pharmaceutical
665,665,19,14,0,13,108,software
666,666,13,29,9,16,104,retail
667,667,7,11,0,27,149,realestate
668,668,5,10,2,22,133,financial
669,669,4,12,8,0,164,pharmaceutical
670,670,1,1,5,27,236,realestate
671,671,11,22,9,19,130,realestate
672,672,19,7,8,20,98,education
673,673,4,17,3,17,154,retail
674,674,12,23,0,2,95,retail
675,675,4,27,7,19,176,retail
676,676,9,25,5,21,68,pharmaceutical
677,677,18,15,5,9,71,realestate
678,678,4,28,0,15,180,financial
679,679,11,15,8,28,116,realestate
680,680,2,6,1,29,212,pharmaceutical
681,681,19,25,0,19,91,retail
682,682,9,4,1,2,70,pharmaceutical
683,683,14,13,5,10,179,realestate
684,684,8,1,2,13,200,retail
685,685,1,20,2,11,174,financial
686,686,15,8,3,21,219,retail
687,687,6,8,8,17,41,retail
688,688,19,18,5,23,119,realestate
689,689,17,19,9,8,193,retail
690,690,11,1,4,4,122,software
691,691,16,14,7,12,162,pharmaceutical
692,692,12,10,3,23,102,realestate
693,693,0,7,2,16,119,pharmaceutical
694,694,19,23,8,4,97,pharmaceutical
695,695,11,19,4,4,92,pharmaceutical
696,696,10,28,2,17,106,realestate
697,697,2,25,6,21,217,retail
698,698,11,22,0,21,99,education
699,699,10,11,0,27,110,financial
700,700,18,7,4,9,54,financial
701,701,6,15,4,25,77,financial
702,702,3,22,8,29,167,education
703,703,17,24,6,1,190,education
704,704,4,18,3,14,191,pharmaceutical
705,705,5,5,5,24,106,software
706,706,5,10,4,8,106,financial
707,707,9,13,2,19,51,software
708,708,3,0,4,26,189,financial
709,709,10,12,3,27,156,software
710,710,3,23,3,0,174,software
711,711,4,25,5,6,175,financial
712,712,6,19,7,29,76,financial
713,713,13,29,4,29,97,pharmaceutical
714,714,3,23,2,7,185,retail
715,715,9,27,7,0,50,pharmaceutical
716,716,2,23,8,13,211,realestate
717,717,9,16,8,11,53,realestate
718,718,0,21,1,2,122,financial
719,719,6,22,0,0,82,education
720,720,13,0,7,17,145,software
721,721,16,17,3,9,154,pharmaceutical
722,722,10,20,3,13,107,realestate
723,723,0,18,0,4,122,retail
724,724,15,21,6,13,199,software
725,725,5,17,9,2,128,pharmaceutical
726,726,9,29,6,6,81,financial
727,727,15,19,7,0,218,retail
728,728,16,23,9,1,158,education
729,729,16,15,8,19,156,education
730,730,14,2,2,8,197,software
731,731,6,7,9,15,61,education
732,732,1,28,5,6,171,realestate
733,733,5,6,3,26,132,software
734,734,15,27,9,2,188,financial
735,735,3,18,4,20,166,software
736,736,13,16,0,29,99,software
737,737,15,1,4,4,188,education
738,738,10,25,9,3,150,realestate
739,739,16,18,2,24,162,financial
740,740,5,7,4,7,100,software
741,741,13,13,3,2,143,realestate
742,742,5,1,0,29,131,education
743,743,2,7,6,23,201,pharmaceutical
744,744,11,7,0,27,91,education
745,745,0,26,7,0,119,financial
746,746,5,6,2,14,93,education
747,747,3,4,1,7,204,education
748,748,16,13,3,20,149,software
749,749,8,16,9,4,189,pharmaceutical
750,750,12,27,1,20,82,realestate
751,751,10,29,5,6,152,retail
752,752,12,1,0,24,90,retail
753,753,9,25,9,22,72,realestate
754,754,9,10,4,24,83,realestate
755,755,7,17,0,2,126,pharmaceutical
756,756,17,2,6,2,196,realestate
757,757,2,9,4,14,202,software
758,758,4,13,6,10,190,pharmaceutical
759,759,19,15,3,8,114,realestate
760,760,4,12,1,24,182,retail
761,761,8,2,8,27,153,software
762,762,15,20,8,16,214,financial
763,763,18,20,5,3,61,financial
764,764,19,11,1,15,87,realestate
765,765,17,14,3,13,196,education
766,766,5,11,3,7,134,software
767,767,0,28,3,22,122,financial
768,768,12,25,3,26,99,financial
769,769,5,10,6,16,134,realestate
770,770,9,28,3,14,95,retail
771,771,5,4,3,19,113,education
772,772,15,23,1,0,207,pharmaceutical
773,773,18,1,2,29,56,financial
774,774,6,24,6,2,85,software
775,775,16,12,0,19,149,financial
776,776,0,27,8,26,120,retail
777,777,3,6,5,23,191,financial
778,778,18,18,5,18,77,pharmaceutical
779,779,15,17,6,22,199,financial
780,780,11,22,0,27,110,pharmaceutical
781,781,18,24,6,6,55,realestate
782,782,17,14,1,21,199,pharmaceutical
783,783,9,18,3,15,70,software
784,784,9,28,5,25,58,financial
785,785,8,9,9,28,141,realestate
786,786,5,22,9,3,96,education
787,787,7,5,5,29,132,realestate
788,788,4,9,7,15,172,financial
789,789,11,5,2,20,108,software
790,790,12,10,3,21,90,education
791,791,12,9,3,26,109,education
792,792,7,28,0,11,150,pharmaceutical
793,793,0,24,8,13,123,education
794,794,2,17,6,22,200,education
795,795,4,15,7,9,150,pharmaceutical
796,796,12,19,7,13,89,financial
797,797,3,5,6,8,183,pharmaceutical
798,798,13,10,9,11,112,financial
799,799,4,29,4,12,156,pharmaceutical
800,800,11,13,1,0,110,retail
801,801,10,5,2,12,153,realestate
802,802,19,18,6,28,113,education
803,803,16,4,7,25,162,education
804,804,12,28,7,7,95,software
805,805,13,7,4,3,88,pharmaceutical
806,806,7,5,3,2,125,retail
807,807,7,0,3,4,134,software
808,808,18,18,8,0,75,pharmaceutical
809,809,12,9,6,1,93,education
810,810,11,3,5,20,104,pharmaceutical
811,811,7,9,2,6,154,realestate
812,812,3,0,3,14,205,software
813,813,12,15,1,26,92,pharmaceutical
814,814,10,2,6,20,156,education
815,815,9,27,3,2,43,retail
816,816,7,11,0,28,125,retail
817,817,5,7,4,24,102,education
818,818,10,29,0,17,93,pharmaceutical
819,819,3,23,3,6,179,retail
820,820,17,0,8,14,185,financial
821,821,9,25,8,10,92,education
822,822,2,4,6,25,216,retail
823,823,1,27,5,0,161,financial
824,824,12,18,3,9,107,financial
825,825,10,22,5,26,136,financial
826,826,7,18,1,26,124,realestate
827,827,11,14,6,19,134,education
828,828,5,4,7,26,129,education
829,829,6,0,9,20,54,education
830,830,12,26,6,24,88,pharmaceutical
831,831,16,28,3,20,161,education
832,832,2,23,9,18,199,retail
833,833,19,2,0,5,80,software
834,834,15,29,0,1,205,education
835,835,17,13,8,28,185,retail
836,836,6,26,3,4,58,retail
837,837,10,19,2,9,98,retail
838,838,14,12,4,26,183,software
839,839,6,5,1,1,71,pharmaceutical
840,840,8,24,9,19,140,realestate
841,841,9,2,4,4,105,software
842,842,4,6,9,25,178,pharmaceutical
843,843,2,15,1,19,210,pharmaceutical
844,844,16,19,4,2,155,financial
845,845,5,18,9,8,102,retail
846,846,7,19,3,0,165,retail
847,847,2,7,0,0,216,retail
848,848,19,24,0,10,115,realestate
849,849,15,22,0,26,193,retail
850,850,19,3,1,22,71,education
851,851,14,24,3,9,185,pharmaceutical
852,852,0,16,7,25,119,financial
853,853,7,15,5,27,156,software
854,854,9,23,4,3,49,retail
855,855,12,29,2,7,92,pharmaceutical
856,856,0,9,3,13,123,financial
857,857,11,27,3,11,91,pharmaceutical
858,858,13,28,9,29,91,software
859,859,3,26,2,13,166,retail
860,860,0,21,7,27,120,education
861,861,18,2,7,1,51,education
862,862,8,13,3,2,178,financial
863,863,0,27,6,26,119,education
864,864,8,20,3,15,111,pharmaceutical
865,865,0,25,7,0,123,education
866,866,7,23,3,17,161,pharmaceutical
867,867,13,26,7,9,87,pharmaceutical
868,868,11,18,4,10,101,software
869,869,18,10,6,3,55,realestate
870,870,9,5,4,14,61,realestate
871,871,17,6,5,8,183,software
872,872,2,27,7,4,215,realestate
873,873,11,26,7,7,117,retail
874,874,13,4,5,8,119,software
875,875,4,26,9,14,177,education
876,876,10,10,7,23,133,education
877,877,18,21,4,18,64,realestate
878,878,8,15,9,25,174,education
879,879,17,23,4,2,203,software
880,880,16,24,6,14,148,software
881,881,7,23,3,29,147,pharmaceutical
882,882,1,10,5,19,174,realestate
883,883,2,21,6,3,201,software
884,884,0,8,0,10,123,education
885,885,5,8,8,2,135,retail
886,886,0,5,7,7,122,pharmaceutical
887,887,17,13,1,6,201,realestate
888,888,6,11,5,28,83,financial
889,889,14,24,9,24,185,financial
890,890,1,0,1,27,209,financial
891,891,16,29,4,1,151,software
892,892,2,26,2,8,203,education
893,893,7,27,8,7,126,realestate
894,894,19,10,8,7,82,software
895,895,7,12,2,9,119,pharmaceutical
896,896,9,25,8,28,95,financial
897,897,4,16,9,23,174,financial
898,898,4,15,9,21,157,realestate
899,899,18,16,2,18,71,education
900,900,0,27,7,28,122,realestate
901,901,4,10,5,22,150,realestate
902,902,7,28,6,15,126,software
903,903,10,4,6,5,93,retail
904,904,1,25,5,15,158,pharmaceutical
905,905,5,23,9,13,92,education
906,906,13,6,9,25,135,pharmaceutical
907,907,17,16,2,26,194,pharmaceutical
908,908,1,0,4,24,160,education
909,909,5,27,7,4,115,education
910,910,5,12,5,3,103,realestate
911,911,13,14,9,26,131,education
912,912,15,18,8,28,214,financial
913,913,17,9,2,10,196,education
914,914,4,21,4,28,173,realestate
915,915,2,29,4,19,202,retail
916,916,19,26,8,23,82,education
917,917,8,11,6,17,146,realestate
918,918,13,14,4,6,107,pharmaceutical
919,919,1,8,8,2,222,realestate
920,920,11,4,4,27,140,financial
921,921,1,23,7,23,163,software
922,922,6,5,2,16,63,education
923,923,2,25,6,4,219,software
924,924,6,7,2,15,68,pharmaceutical
925,925,2,1,8,14,205,realestate
926,926,0,15,2,7,120,education
927,927,18,20,8,9,102,pharmaceutical
928,928,2,28,7,10,200,financial
929,929,0,7,7,3,121,realestate
930,930,13,11,9,19,123,software
931,931,17,13,7,22,202,software
932,932,13,23,4,5,103,software
933,933,4,14,1,14,189,retail
934,934,0,27,9,19,123,retail
935,935,18,11,6,3,65,education
936,936,16,10,2,1,148,financial
937,937,1,25,3,27,230,education
938,938,16,2,9,13,154,software
939,939,5,2,4,23,104,retail
940,940,17,29,0,24,192,pharmaceutical
941,941,0,15,1,20,122,realestate
942,942,15,0,7,7,211,education
943,943,19,22,9,29,111,retail
944,944,7,18,7,3,132,financial
945,945,9,8,9,18,90,software
946,946,19,13,3,11,85,software
947,947,10,27,6,10,156,financial
948,948,16,28,3,26,160,software
949,949,7,3,2,25,154,pharmaceutical
950,950,19,24,6,9,88,realestate
951,951,16,4,9,1,162,software
952,952,18,13,2,17,58,financial
953,953,10,7,1,5,113,software
954,954,5,0,0,21,108,software
955,955,1,4,6,13,169,software
956,956,6,29,1,8,81,financial
957,957,18,2,4,22,100,pharmaceutical
958,958,19,21,6,20,118,retail
959,959,8,23,4,18,158,software
960,960,14,9,8,12,195,retail
961,961,1,27,9,16,210,realestate
962,962,0,23,9,13,122,retail
963,963,10,28,8,28,88,education
964,964,15,18,5,14,217,pharmaceutical
965,965,6,5,0,21,78,financial
966,966,4,20,7,14,172,retail
967,967,3,8,9,1,184,software
968,968,0,16,8,12,122,education
969,969,5,16,7,26,110,retail
970,970,12,24,7,29,97,financial
971,971,0,29,4,21,122,retail
972,972,18,15,2,23,52,software
973,973,18,1,7,12,90,financial
974,974,8,1,2,18,117,software
975,975,11,1,3,20,120,software
976,976,16,12,6,21,162,education
977,977,6,18,9,6,51,retail
978,978,11,29,2,19,93,realestate
979,979,14,4,1,29,194,retail
980,980,18,4,5,29,56,retail
981,981,14,4,4,19,184,realestate
982,982,11,27,2,22,103,education
983,983,5,29,2,11,117,retail
984,984,11,19,1,27,124,financial
985,985,6,19,7,6,57,retail
986,986,6,18,5,10,76,retail
987,987,8,12,1,6,126,software
988,988,9,25,5,3,87,pharmaceutical
989,989,19,6,2,4,114,financial
990,990,0,8,5,3,121,pharmaceutical
991,991,18,19,0,16,91,realestate
992,992,10,17,4,13,88,software
993,993,16,21,7,18,151,software
994,994,10,6,1,17,92,financial
995,995,18,0,8,29,74,realestate
996,996,12,9,4,11,100,financial
997,997,7,20,1,5,127,retail
998,998,0,23,1,27,121,retail
999,999,1,5,0,6,174,realestate
1000,1000,0,6,0,2,120,realestate
1001,1001,2,6,6,29,215,retail
1002,1002,7,5,9,20,155,retail
1003,1003,10,4,1,23,104,education
1004,1004,7,22,2,3,121,education
1005,1005,12,2,9,20,93,pharmaceutical
1006,1006,6,9,2,0,46,financial
1007,1007,16,7,6,13,162,retail
1008,1008,19,0,6,0,115,realestate
1009,1009,6,27,7,10,43,education
1010,1010,4,3,9,25,176,retail
1011,1011,14,10,5,10,194,realestate
1012,1012,11,19,9,16,122,education
1013,1013,5,7,7,17,122,education
1014,1014,15,29,7,22,197,software
1015,1015,16,20,2,12,148,retail
1016,1016,19,18,4,18,80,retail
1017,1017,5,1,2,1,127,education
1018,1018,4,25,0,8,176,pharmaceutical
1019,1019,13,8,8,14,115,retail
1020,1020,18,9,9,2,101,education
1021,1021,6,29,2,14,75,education
1022,1022,19,28,2,9,99,financial
1023,1023,15,28,5,16,219,realestate
1024,1024,4,7,2,0,194,education
1025,1025,16,21,1,7,156,financial
1026,1026,2,27,8,13,210,software
1027,1027,7,0,3,14,136,software
1028,1028,12,7,7,0,88,pharmaceutical
1029,1029,2,13,2,13,207,financial
1030,1030,6,26,2,1,82,education
1031,1031,0,1,3,8,121,realestate
1032,1032,4,0,9,10,177,education
1033,1033,3,2,2,24,191,education
1034,1034,14,26,7,12,186,software
1035,1035,3,28,4,21,178,financial
1036,1036,2,13,0,8,205,financial
1037,1037,5,25,5,17,139,realestate
1038,1038,12,15,9,14,105,pharmaceutical
1039,1039,6,16,4,0,62,software
1040,1040,11,16,3,21,137,realestate
1041,1041,3,2,3,29,167,retail
1042,1042,5,20,7,9,110,financial
1043,1043,1,10,2,21,215,realestate
1044,1044,17,0,7,5,203,financial
1045,1045,13,25,9,28,143,education
1046,1046,17,14,5,19,201,retail
1047,1047,10,12,3,27,92,retail
1048,1048,1,27,8,27,169,retail
1049,1049,15,23,4,29,192,pharmaceutical
1050,1050,0,10,7,28,119,realestate
1051,1051,0,16,3,27,120,financial
1052,1052,11,1,5,1,136,financial
1053,1053,6,25,3,26,44,software
1054,1054,5,11,7,14,115,financial
1055,1055,0,20,9,3,122,retail
1056,1056,19,29,9,26,96,retail
1057,1057,12,5,2,29,104,software
1058,1058,1,17,9,5,202,pharmaceutical
1059,1059,15,1,9,11,194,software
1060,1060,5,18,9,23,99,retail
1061,1061,4,13,7,7,137,realestate
1062,1062,8,19,3,17,127,pharmaceutical
1063,1063,2,2,4,28,214,software
1064,1064,5,13,2,4,117,retail
1065,1065,6,29,2,6,43,software
1066,1066,0,24,0,7,123,financial
1067,1067,19,8,4,1,89,pharmaceutical
1068,1068,9,27,8,2,47,retail
1069,1069,17,12,6,27,202,realestate
1070,1070,10,13,3,4,146,financial
1071,1071,6,0,1,29,61,pharmaceutical
1072,1072,5,0,7,23,96,realestate
1073,1073,1,24,9,18,159,pharmaceutical
1074,1074,15,28,5,27,215,software
1075,1075,9,19,1,27,75,retail
1076,1076,17,15,9,13,195,realestate
1077,1077,5,2,7,20,129,realestate
1078,1078,16,7,1,19,160,realestate
1079,1079,15,23,1,19,184,pharmaceutical
1080,1080,5,17,4,2,97,realestate
1081,1081,11,10,0,28,91,software
1082,1082,14,9,8,22,180,retail
1083,1083,19,0,5,2,98,pharmaceutical
1084,1084,10,16,1,28,124,realestate
1085,1085,7,5,3,24,159,realestate
1086,1086,5,4,7,18,106,software
1087,1087,0,17,9,0,121,pharmaceutical
1088,1088,13,19,9,25,116,pharmaceutical
1089,1089,11,5,1,25,124,realestate
1090,1090,15,17,2,9,216,retail
1091,1091,0,19,3,20,122,software
1092,1092,2,28,5,25,212,pharmaceutical
1093,1093,19,3,5,2,85,education
1094,1094,9,28,1,27,94,realestate
1095,1095,10,13,0,10,130,pharmaceutical
1096,1096,10,26,7,18,138,pharmaceutical
1097,1097,17,23,6,24,195,education
1098,1098,10,26,0,15,130,financial
1099,1099,10,20,2,23,134,financial
1100,1100,18,0,4,17,54,retail
1101,1101,8,24,9,14,190,realestate
1102,1102,17,22,8,1,190,financial
1103,1103,12,23,2,20,107,pharmaceutical
1104,1104,7,1,0,1,146,retail
1105,1105,14,8,3,22,199,retail
1106,1106,13,14,7,24,133,financial
1107,1107,9,12,9,25,85,realestate
1108,1108,0,4,1,11,121,retail
1109,1109,5,23,3,28,106,financial
1110,1110,3,3,2,21,211,retail
1111,1111,6,0,1,9,81,realestate
1112,1112,8,23,3,2,158,realestate
1113,1113,2,18,3,27,200,pharmaceutical
1114,1114,9,24,7,4,70,education
1115,1115,7,22,7,4,122,retail
1116,1116,8,14,6,11,120,financial
1117,1117,6,14,1,20,42,retail
1118,1118,18,15,3,9,51,education
1119,1119,12,24,9,17,96,education
1120,1120,14,15,0,8,192,financial
1121,1121,18,7,6,17,81,software
1122,1122,15,8,8,27,206,retail
1123,1123,16,23,4,0,148,realestate
1124,1124,3,6,0,13,208,realestate
1125,1125,5,29,3,9,103,pharmaceutical
1126,1126,5,14,4,17,135,software
1127,1127,6,19,4,11,72,retail
1128,1128,16,19,6,11,153,financial
1129,1129,17,16,6,14,198,retail
1130,1130,8,26,1,6,205,financial
1131,1131,8,3,1,3,180,financial
1132,1132,15,22,1,15,196,retail
1133,1133,18,4,7,25,68,software
1134,1134,15,11,7,16,181,realestate
1135,1135,11,14,0,2,140,pharmaceutical
1136,1136,12,22,1,6,88,retail
1137,1137,16,10,3,0,154,realestate
1138,1138,17,24,0,12,198,financial
1139,1139,17,18,4,28,191,financial
1140,1140,0,12,9,13,120,financial
1141,1141,10,11,8,27,95,pharmaceutical
1142,1142,5,26,1,22,130,pharmaceutical
1143,1143,0,17,8,1,119,retail
1144,1144,10,6,7,25,132,education
1145,1145,0,25,1,23,123,retail
1146,1146,10,0,0,16,129,education
1147,1147,0,15,9,6,121,realestate
1148,1148,14,24,6,18,180,education
1149,1149,1,14,5,18,188,financial
1150,1150,10,11,2,29,97,software
1151,1151,12,1,3,24,86,education
1152,1152,18,5,0,3,93,realestate
1153,1153,13,24,7,18,132,education
1154,1154,10,29,3,11,138,realestate
1155,1155,17,28,1,24,183,realestate
1156,1156,19,26,1,15,93,pharmaceutical
1157,1157,1,28,9,27,175,pharmaceutical
1158,1158,12,5,9,0,98,retail
1159,1159,2,12,6,19,205,education
1160,1160,6,23,1,6,64,pharmaceutical
1161,1161,10,24,8,10,113,financial
1162,1162,5,10,1,17,131,realestate
1163,1163,5,6,3,29,119,retail
1164,1164,1,24,5,4,197,realestate
1165,1165,12,14,9,1,89,realestate
1166,1166,2,24,2,9,215,realestate
1167,1167,12,5,1,24,99,retail
1168,1168,10,11,8,29,120,education
1169,1169,5,12,1,26,127,realestate
1170,1170,13,13,2,11,87,retail
1171,1171,9,9,1,11,48,financial
1172,1172,10,25,2,8,151,realestate
1173,1173,19,4,6,6,79,retail
1174,1174,19,1,1,5,77,financial
1175,1175,0,10,5,9,119,education
1176,1176,13,9,9,0,87,education
1177,1177,9,17,0,3,100,retail
1178,1178,9,13,7,15,62,financial
1179,1179,18,13,0,1,96,retail
1180,1180,6,4,3,25,82,education
1181,1181,18,22,2,24,66,realestate
1182,1182,1,15,5,10,208,realestate
1183,1183,3,17,2,21,182,financial
1184,1184,6,15,6,9,67,education
1185,1185,11,20,0,29,121,education
1186,1186,16,8,7,21,150,education
1187,1187,17,9,8,13,203,financial
1188,1188,4,8,9,16,166,pharmaceutical
1189,1189,4,3,9,5,148,financial
1190,1190,18,0,5,5,95,education
1191,1191,11,22,6,16,125,pharmaceutical
1192,1192,16,15,3,20,155,pharmaceutical
1193,1193,16,17,0,23,157,pharmaceutical
1194,1194,2,13,4,8,210,pharmaceutical
1195,1195,13,16,9,23,91,pharmaceutical
1196,1196,16,19,3,2,152,retail
1197,1197,17,1,5,20,193,retail
1198,1198,4,16,4,10,146,software
1199,1199,2,22,3,4,210,software
1200,1200,9,4,9,11,101,software
1201,1201,11,24,9,17,134,education
1202,1202,9,26,6,6,103,pharmaceutical
1203,1203,5,20,1,0,115,retail
1204,1204,9,9,7,12,60,software
1205,1205,8,23,4,9,200,education
1206,1206,10,23,2,18,123,realestate
1207,1207,18,17,7,25,94,financial
1208,1208,7,1,6,11,122,education
1209,1209,13,2,4,12,89,education
1210,1210,1,21,4,27,199,software
1211,1211,9,19,2,1,57,education
1212,1212,1,26,8,6,228,retail
1213,1213,17,22,0,23,183,realestate
1214,1214,9,5,0,1,51,retail
1215,1215,5,5,4,17,98,retail
1216,1216,18,24,6,8,99,retail
1217,1217,10,17,3,17,118,realestate
1218,1218,8,28,5,23,157,realestate
1219,1219,6,13,9,26,52,realestate
1220,1220,16,29,5,28,153,retail
1221,1221,13,13,2,17,136,retail
1222,1222,4,3,3,3,168,pharmaceutical
1223,1223,17,8,8,9,196,realestate
1224,1224,15,11,8,12,179,financial
1225,1225,2,11,0,11,204,pharmaceutical
1226,1226,7,6,5,10,138,pharmaceutical
1227,1227,0,4,0,13,122,realestate
1228,1228,12,3,3,20,97,retail
1229,1229,18,20,5,13,67,pharmaceutical
1230,1230,19,24,8,24,92,financial
1231,1231,18,1,2,17,63,software
1232,1232,1,3,1,9,168,software
1233,1233,14,24,8,27,188,education
1234,1234,14,10,4,14,199,education
1235,1235,10,20,6,24,152,financial
1236,1236,3,1,4,2,197,software
1237,1237,17,15,4,7,191,realestate
1238,1238,15,0,9,29,198,realestate
1239,1239,8,5,1,26,137,financial
1240,1240,0,21,2,13,123,software
1241,1241,7,13,1,15,126,education
1242,1242,15,7,4,18,180,financial
1243,1243,17,28,8,8,205,realestate
1244,1244,3,9,1,9,183,financial
1245,1245,8,15,4,27,182,retail
1246,1246,15,11,6,26,218,financial
1247,1247,7,10,0,11,145,realestate
1248,1248,8,1,6,21,126,pharmaceutical
1249,1249,8,20,3,11,156,retail
1250,1250,3,15,7,24,216,software
1251,1251,14,24,8,27,196,retail
1252,1252,16,15,0,24,152,financial
1253,1253,16,12,6,22,158,financial
1254,1254,12,23,0,16,90,software
1255,1255,19,22,7,20,115,retail
1256,1256,14,7,4,16,191,realestate
1257,1257,10,21,6,7,100,software
1258,1258,19,6,0,7,106,software
1259,1259,3,26,8,19,166,realestate
1260,1260,1,6,7,27,225,pharmaceutical
1261,1261,10,20,0,20,112,pharmaceutical
1262,1262,6,8,3,14,63,pharmaceutical
1263,1263,7,10,9,26,162,pharmaceutical
1264,1264,11,6,3,14,103,education
1265,1265,8,25,7,0,170,realestate
1266,1266,4,10,1,27,189,pharmaceutical
1267,1267,2,10,2,23,202,financial
1268,1268,3,26,5,16,165,education
1269,1269,19,22,1,0,87,pharmaceutical
1270,1270,8,21,0,25,153,education
1271,1271,19,20,4,12,75,software
1272,1272,15,19,8,19,215,education
1273,1273,12,9,3,27,109,pharmaceutical
1274,1274,3,22,5,12,181,education
1275,1275,3,19,9,3,196,retail
1276,1276,3,6,2,21,198,financial
1277,1277,5,12,7,8,102,realestate
1278,1278,4,25,6,28,144,retail
1279,1279,13,0,1,0,134,education
1280,1280,7,22,3,5,158,retail
1281,1281,2,17,1,11,199,software
1282,1282,1,26,8,2,189,pharmaceutical
1283,1283,0,27,1,24,122,retail
1284,1284,0,20,8,22,120,retail
1285,1285,1,12,7,14,158,retail
1286,1286,0,26,0,4,123,financial
1287,1287,13,26,6,11,124,education
1288,1288,6,28,4,3,49,pharmaceutical
1289,1289,6,2,4,16,83,education
1290,1290,7,15,7,13,139,realestate
1291,1291,16,27,9,21,147,pharmaceutical
1292,1292,7,10,2,5,123,education
1293,1293,5,3,3,2,132,pharmaceutical
1294,1294,17,20,4,18,201,software
1295,1295,6,18,5,4,43,pharmaceutical
1296,1296,15,25,4,13,208,realestate
1297,1297,7,28,2,14,133,financial
1298,1298,11,21,4,29,95,financial
1299,1299,2,27,8,20,212,financial
1300,1300,17,14,8,7,187,software
1301,1301,13,17,0,28,109,pharmaceutical
1302,1302,19,24,5,25,78,realestate
1303,1303,18,10,3,1,92,education
1304,1304,16,9,1,26,161,pharmaceutical
1305,1305,16,18,8,26,146,financial
1306,1306,8,1,9,11,136,financial
1307,1307,13,25,2,21,107,pharmaceutical
1308,1308,3,1,8,0,185,realestate
1309,1309,7,11,4,27,155,financial
1310,1310,15,4,7,22,217,pharmaceutical
1311,1311,10,9,9,20,147,realestate
1312,1312,8,15,6,1,175,retail
1313,1313,3,7,3,28,185,retail
1314,1314,9,3,5,23,44,education
1315,1315,15,9,2,4,199,software
1316,1316,4,4,9,17,158,retail
1317,1317,0,24,6,3,121,financial
1318,1318,11,13,0,2,109,financial
1319,1319,4,18,9,28,174,financial
1320,1320,18,3,5,29,59,financial
1321,1321,14,0,4,7,182,realestate
1322,1322,11,4,8,17,135,retail
1323,1323,8,12,9,29,199,retail
1324,1324,9,6,0,9,76,retail
1325,1325,11,10,5,1,133,financial
1326,1326,5,6,9,17,140,realestate
1327,1327,14,21,8,25,188,software
1328,1328,8,7,3,29,207,realestate
1329,1329,8,13,6,11,159,retail
1330,1330,2,10,9,5,205,education
1331,1331,2,4,5,14,216,education
1332,1332,4,19,3,9,140,retail
1333,1333,15,15,8,21,194,software
1334,1334,15,27,4,18,214,software
1335,1335,15,19,9,16,205,financial
1336,1336,0,21,3,5,119,software
1337,1337,19,2,8,23,74,realestate
1338,1338,3,29,3,23,198,realestate
1339,1339,12,4,0,9,92,realestate
1340,1340,18,26,3,19,62,financial
1341,1341,7,27,0,20,124,retail
1342,1342,8,3,8,2,152,financial
1343,1343,10,23,2,11,93,education
1344,1344,17,11,6,10,186,pharmaceutical
1345,1345,1,26,2,9,171,realestate
1346,1346,0,29,8,4,120,retail
1347,1347,1,19,4,27,206,financial
1348,1348,12,19,4,3,80,realestate
1349,1349,6,12,3,3,63,education
1350,1350,13,27,0,17,132,realestate
1351,1351,8,8,3,6,188,software
1352,1352,15,6,2,15,213,realestate
1353,1353,8,13,2,10,170,retail
1354,1354,10,25,6,19,97,financial
1355,1355,0,2,8,27,120,software
1356,1356,5,3,5,15,122,software
1357,1357,1,14,6,22,233,pharmaceutical
1358,1358,0,8,9,18,119,financial
1359,1359,12,11,2,19,101,software
1360,1360,14,29,4,14,198,financial
1361,1361,19,28,8,22,106,pharmaceutical
1362,1362,2,6,4,5,212,retail
1363,1363,2,27,1,7,200,retail
1364,1364,10,14,5,14,92,financial
1365,1365,9,5,8,13,63,software
1366,1366,4,6,3,18,168,software
1367,1367,14,23,3,21,190,financial
1368,1368,18,16,3,29,58,pharmaceutical
1369,1369,4,29,3,19,191,software
1370,1370,4,1,1,9,187,education
1371,1371,13,19,4,4,114,realestate
1372,1372,15,24,5,1,185,financial
1373,1373,19,23,8,26,85,software
1374,1374,19,19,8,21,78,retail
1375,1375,6,2,6,15,65,pharmaceutical
1376,1376,10,21,8,5,95,retail
1377,1377,18,2,2,27,97,financial
1378,1378,10,8,9,4,142,education
1379,1379,17,0,1,11,191,software
1380,1380,0,11,7,2,121,pharmaceutical
1381,1381,14,4,7,11,187,pharmaceutical
1382,1382,14,22,6,11,180,financial
1383,1383,4,16,4,2,176,realestate
1384,1384,0,5,3,18,120,software
1385,1385,14,9,6,14,194,software
1386,1386,5,1,5,8,96,software
1387,1387,10,4,0,28,123,education
1388,1388,9,11,5,25,79,financial
1389,1389,1,13,5,0,186,realestate
1390,1390,8,12,7,23,135,retail
1391,1391,12,16,4,10,108,realestate
1392,1392,17,19,3,29,185,retail
1393,1393,16,9,4,27,151,pharmaceutical
1394,1394,18,20,4,27,89,realestate
1395,1395,19,23,2,16,94,retail
1396,1396,1,8,3,20,171,pharmaceutical
1397,1397,8,1,3,3,131,pharmaceutical
1398,1398,15,1,7,27,207,education
1399,1399,12,23,7,26,85,retail
1400,1400,11,13,8,3,116,realestate
1401,1401,16,15,2,0,162,software
1402,1402,6,22,0,3,59,education
1403,1403,18,18,7,28,92,education
1404,1404,8,17,1,12,197,education
1405,1405,17,16,3,19,187,financial
1406,1406,16,3,9,19,159,software
1407,1407,14,26,0,8,181,software
1408,1408,14,24,4,7,181,software
1409,1409,7,29,0,19,160,financial
1410,1410,10,19,7,27,114,retail
1411,1411,10,18,4,16,88,retail
1412,1412,8,15,6,4,129,pharmaceutical
1413,1413,9,10,8,15,82,software
1414,1414,15,28,0,14,195,education
1415,1415,17,8,2,7,203,realestate
1416,1416,13,9,1,24,112,software
1417,1417,13,17,6,3,139,realestate
1418,1418,19,26,8,7,99,financial
1419,1419,7,26,4,9,122,pharmaceutical
1420,1420,19,28,3,7,117,financial
1421,1421,9,10,0,13,70,retail
1422,1422,16,28,1,10,149,pharmaceutical
1423,1423,8,24,6,17,145,pharmaceutical
1424,1424,6,9,5,6,44,financial
1425,1425,14,0,7,5,198,realestate
1426,1426,15,5,4,20,204,retail
1427,1427,3,7,3,18,201,retail
1428,1428,2,7,2,13,212,realestate
1429,1429,19,10,4,13,103,software
1430,1430,18,10,8,2,78,education
1431,1431,0,19,8,22,121,financial
1432,1432,2,17,6,0,212,retail
1433,1433,11,23,0,19,117,financial
1434,1434,10,4,8,25,153,education
1435,1435,8,13,4,28,143,pharmaceutical
1436,1436,19,10,5,9,100,realestate
1437,1437,9,11,2,7,67,pharmaceutical
1438,1438,3,7,2,6,205,retail
1439,1439,5,25,3,17,98,realestate
1440,1440,1,2,1,7,229,realestate
1441,1441,8,13,4,19,174,retail
1442,1442,17,12,4,21,198,software
1443,1443,14,10,2,4,198,education
1444,1444,16,5,4,17,161,retail
1445,1445,10,19,7,17,150,financial
1446,1446,6,9,2,23,56,pharmaceutical
1447,1447,10,11,8,19,104,software
1448,1448,15,19,5,28,178,financial
1449,1449,13,7,4,25,100,retail
1450,1450,14,9,2,16,183,software
1451,1451,4,25,6,26,171,education
1452,1452,9,29,3,20,96,realestate
1453,1453,5,3,5,3,123,pharmaceutical
1454,1454,16,22,8,28,161,financial
1455,1455,7,0,8,2,146,retail
1456,1456,17,24,2,24,186,realestate
1457,1457,19,12,7,19,72,realestate
1458,1458,5,0,4,17,118,financial
1459,1459,3,27,7,26,169,financial
1460,1460,13,15,6,1,130,realestate
1461,1461,19,21,3,25,93,retail
1462,1462,11,7,5,24,135,realestate
1463,1463,15,11,6,27,207,software
1464,1464,15,8,4,19,200,software
1465,1465,9,3,7,24,61,software
1466,1466,3,20,4,16,205,retail
1467,1467,16,10,3,23,150,pharmaceutical
1468,1468,5,15,9,29,107,retail
1469,1469,17,26,8,28,204,education
1470,1470,17,25,8,20,199,realestate
1471,1471,12,1,1,8,86,education
1472,1472,3,29,0,4,173,retail
1473,1473,13,13,1,22,136,software
1474,1474,15,10,4,19,182,retail
1475,1475,8,23,7,13,121,realestate
1476,1476,3,11,9,23,193,education
1477,1477,5,14,6,9,111,realestate
1478,1478,9,9,1,25,75,retail
1479,1479,12,27,0,17,104,retail
1480,1480,9,1,7,0,94,financial
1481,1481,2,29,3,18,219,software
1482,1482,3,15,4,9,170,education
1483,1483,3,4,9,18,170,financial
1484,1484,0,26,9,16,120,software
1485,1485,4,15,9,17,152,retail
1486,1486,4,18,4,28,134,education
1487,1487,19,20,7,11,72,financial
1488,1488,5,3,4,19,120,education
1489,1489,17,25,6,5,202,financial
1490,1490,19,5,7,6,102,software
1491,1491,7,13,9,28,146,realestate
1492,1492,18,9,7,20,76,retail
1493,1493,2,16,8,13,202,financial
1494,1494,5,28,5,27,94,software
1495,1495,17,19,9,7,200,education
1496,1496,19,28,5,1,81,education
1497,1497,18,27,8,5,101,software
1498,1498,10,8,9,8,149,education
1499,1499,4,6,2,15,190,realestate
1500,1500,6,28,0,26,78,pharmaceutical
1501,1501,11,11,1,5,133,retail
1502,1502,5,13,1,9,137,software
1503,1503,6,11,6,21,63,realestate
1504,1504,13,28,1,1,94,financial
1505,1505,17,14,9,29,191,financial
1506,1506,19,18,1,21,82,retail
1507,1507,0,26,0,7,120,retail
1508,1508,3,27,1,12,192,software
1509,1509,10,10,6,3,108,education
1510,1510,19,0,7,15,85,software
1511,1511,18,16,1,0,60,software
1512,1512,19,2,6,2,73,realestate
1513,1513,7,18,7,23,129,financial
1514,1514,5,9,7,28,94,software
1515,1515,6,22,6,5,44,pharmaceutical
1516,1516,0,19,2,24,123,financial
1517,1517,6,10,4,6,76,pharmaceutical
1518,1518,12,25,8,8,86,financial
1519,1519,12,4,8,21,94,financial
1520,1520,14,17,3,28,196,pharmaceutical
1521,1521,16,11,3,22,160,software
1522,1522,14,19,2,27,196,education
1523,1523,16,24,1,3,146,realestate
1524,1524,17,1,7,0,189,pharmaceutical
1525,1525,2,0,2,25,210,pharmaceutical
1526,1526,12,29,4,1,97,pharmaceutical
1527,1527,17,3,0,1,197,education
1528,1528,17,5,3,15,185,education
1529,1529,9,2,9,16,67,financial
1530,1530,19,13,1,25,78,education
1531,1531,2,17,8,22,208,education
1532,1532,14,8,6,6,184,education
1533,1533,18,9,5,0,55,retail
1534,1534,15,4,9,29,206,retail
1535,1535,16,9,6,23,154,pharmaceutical
1536,1536,15,18,4,19,186,realestate
1537,1537,5,18,4,25,127,retail
1538,1538,2,21,3,7,216,realestate
1539,1539,14,0,5,9,189,software
1540,1540,2,28,9,8,213,realestate
1541,1541,9,17,2,26,84,retail
1542,1542,12,24,7,15,83,software
1543,1543,17,1,5,2,204,education
1544,1544,14,29,5,11,184,realestate
1545,1545,14,26,3,22,193,financial
1546,1546,10,22,9,14,99,education
1547,1547,15,24,1,10,199,pharmaceutical
1548,1548,9,6,0,10,81,realestate
1549,1549,11,18,2,16,101,realestate
1550,1550,5,27,8,25,114,realestate
1551,1551,0,4,5,18,120,software
1552,1552,9,0,6,8,47,software
1553,1553,6,5,2,4,71,education
1554,1554,6,16,1,3,86,financial
1555,1555,0,20,3,2,120,realestate
1556,1556,6,21,3,15,63,software
1557,1557,6,1,3,26,58,retail
1558,1558,12,6,7,13,97,financial
1559,1559,7,27,5,21,162,retail
1560,1560,10,29,3,6,126,realestate
1561,1561,11,22,3,1,115,retail
1562,1562,6,18,5,16,50,pharmaceutical
1563,1563,12,21,7,17,87,financial
1564,1564,1,3,1,27,236,retail
1565,1565,10,21,1,0,137,software
1566,1566,3,2,7,19,209,pharmaceutical
1567,1567,17,13,8,14,202,education
1568,1568,12,17,8,19,78,education
1569,1569,13,10,4,7,115,education
1570,1570,12,22,6,2,102,financial
1571,1571,18,18,8,26,95,retail
1572,1572,5,19,5,4,107,education
1573,1573,3,0,7,6,177,education
1574,1574,12,11,8,9,106,pharmaceutical
1575,1575,12,20,4,19,106,financial
1576,1576,13,22,7,10,133,pharmaceutical
1577,1577,5,27,4,5,109,pharmaceutical
1578,1578,11,21,7,23,95,retail
1579,1579,8,13,5,16,183,education
1580,1580,3,21,1,20,193,retail
1581,1581,11,19,4,12,92,software
1582,1582,13,29,6,26,106,retail
1583,1583,8,28,4,16,204,realestate
1584,1584,9,6,6,12,94,pharmaceutical
1585,1585,5,21,8,13,97,retail
1586,1586,7,19,7,8,143,retail
1587,1587,5,2,4,25,100,realestate
1588,1588,9,20,2,26,82,retail
1589,1589,11,14,7,22,102,pharmaceutical
1590,1590,5,1,8,24,101,financial
1591,1591,1,27,1,11,190,pharmaceutical
1592,1592,13,28,8,25,125,software
1593,1593,16,11,2,25,146,retail
1594,1594,2,27,6,26,200,realestate
1595,1595,8,12,4,4,161,financial
1596,1596,11,8,3,5,140,education
1597,1597,8,4,3,29,140,retail
1598,1598,17,0,9,6,200,realestate
1599,1599,6,24,1,25,59,pharmaceutical
1600,1600,4,16,7,24,141,retail
1601,1601,9,17,1,5,74,education
1602,1602,8,26,1,19,187,realestate
1603,1603,0,3,3,19,120,financial
1604,1604,13,20,1,24,118,education
1605,1605,15,28,2,7,208,software
1606,1606,3,9,3,2,199,financial
1607,1607,12,16,7,29,79,software
1608,1608,9,28,6,26,47,financial
1609,1609,17,19,6,19,190,education
1610,1610,0,13,3,11,119,education
1611,1611,7,15,0,2,121,education
1612,1612,14,22,3,26,196,pharmaceutical
1613,1613,3,22,1,29,209,software
1614,1614,10,5,1,7,114,financial
1615,1615,18,29,8,28,75,pharmaceutical
1616,1616,14,16,0,7,186,pharmaceutical
1617,1617,14,25,3,28,192,financial
1618,1618,0,16,6,5,123,financial
1619,1619,13,9,7,19,145,retail
1620,1620,13,20,9,9,143,retail
1621,1621,16,16,1,19,157,realestate
1622,1622,15,0,7,16,205,financial
1623,1623,4,26,5,17,145,software
1624,1624,14,23,8,4,189,software
1625,1625,12,2,3,28,103,financial
1626,1626,0,17,6,16,119,education
1627,1627,1,14,8,29,235,pharmaceutical
1628,1628,4,4,9,8,154,retail
1629,1629,19,13,3,9,74,pharmaceutical
1630,1630,1,4,0,11,203,realestate
1631,1631,15,6,9,18,205,education
1632,1632,4,29,1,14,179,software
1633,1633,0,14,1,10,119,retail
1634,1634,19,4,0,20,112,realestate
1635,1635,0,21,8,27,121,pharmaceutical
1636,1636,4,18,6,13,136,education
1637,1637,2,3,6,29,206,software
1638,1638,2,15,3,23,204,education
1639,1639,0,17,7,16,122,pharmaceutical
1640,1640,1,23,8,26,189,pharmaceutical
1641,1641,9,1,2,11,64,software
1642,1642,8,9,3,2,152,software
1643,1643,6,27,1,8,53,financial
1644,1644,10,25,7,19,96,financial
1645,1645,6,6,4,29,75,financial
1646,1646,7,26,9,28,141,financial
1647,1647,10,11,9,28,151,retail
1648,1648,9,5,0,14,99,retail
1649,1649,13,16,3,16,121,pharmaceutical
1650,1650,17,6,9,27,199,financial
1651,1651,14,13,0,3,192,education
1652,1652,16,17,2,27,155,realestate
1653,1653,9,16,9,19,97,education
1654,1654,15,27,3,28,190,retail
1655,1655,14,16,1,13,181,realestate
1656,1656,2,0,2,24,202,software
1657,1657,18,3,6,1,85,pharmaceutical
1658,1658,3,2,1,1,168,financial
1659,1659,10,24,5,18,137,financial
1660,1660,8,21,9,28,199,education
1661,1661,15,16,5,29,202,realestate
1662,1662,0,15,5,6,120,software
1663,1663,11,19,5,15,106,software
1664,1664,3,20,8,14,203,education
1665,1665,12,19,2,10,81,retail
1666,1666,4,13,7,7,137,financial
1667,1667,6,29,3,2,67,financial
1668,1668,7,5,4,27,121,software
1669,1669,15,24,6,26,210,retail
1670,1670,4,29,8,14,169,education
1671,1671,9,7,4,9,84,education
1672,1672,18,17,4,17,95,retail
1673,1673,18,28,7,7,63,software
1674,1674,12,8,1,2,89,financial
1675,1675,4,6,3,17,160,software
1676,1676,6,28,8,17,56,financial
1677,1677,9,12,8,7,96,realestate
1678,1678,0,28,9,10,120,retail
1679,1679,11,12,4,10,95,pharmaceutical
1680,1680,17,29,7,24,201,realestate
1681,1681,14,8,4,11,198,realestate
1682,1682,8,17,3,19,161,financial
1683,1683,2,19,6,3,215,financial
1684,1684,17,1,9,2,193,retail
1685,1685,10,5,2,20,155,software
1686,1686,16,1,7,25,161,financial
1687,1687,19,15,3,14,71,software
1688,1688,9,0,3,13,86,education
1689,1689,16,4,5,17,154,pharmaceutical
1690,1690,17,2,6,23,197,retail
1691,1691,1,24,4,15,235,software
1692,1692,14,23,5,16,190,pharmaceutical
1693,1693,9,0,6,13,53,education
1694,1694,0,25,5,13,122,financial
1695,1695,6,15,5,21,61,financial
1696,1696,9,5,5,20,92,education
1697,1697,7,10,4,11,165,realestate
1698,1698,12,18,8,25,79,education
1699,1699,6,16,4,10,82,financial
1700,1700,18,13,7,22,63,pharmaceutical
1701,1701,17,16,3,2,190,software
1702,1702,12,6,3,1,105,retail
1703,1703,15,16,0,28,215,financial
1704,1704,15,22,6,10,181,realestate
1705,1705,9,3,1,28,103,realestate
1706,1706,19,12,8,21,107,education
1707,1707,12,3,3,8,90,software
1708,1708,8,5,4,15,135,retail
1709,1709,14,18,1,29,190,education
1710,1710,9,1,1,18,69,realestate
1711,1711,14,6,4,27,181,education
1712,1712,7,2,2,2,135,pharmaceutical
1713,1713,13,11,3,15,138,financial
1714,1714,11,1,1,4,97,retail
1715,1715,15,3,0,4,181,education
1716,1716,3,0,2,4,190,retail
1717,1717,4,13,1,21,164,software
1718,1718,6,20,9,21,70,realestate
1719,1719,10,8,5,7,95,pharmaceutical
1720,1720,1,4,4,6,232,financial
1721,1721,0,8,0,25,121,education
1722,1722,7,12,5,2,127,education
1723,1723,1,21,9,28,164,retail
1724,1724,8,12,6,1,170,pharmaceutical
1725,1725,16,8,4,27,160,education
1726,1726,7,18,8,17,119,pharmaceutical
1727,1727,1,6,7,13,199,retail
1728,1728,15,2,7,5,207,education
1729,1729,2,10,1,7,199,retail
1730,1730,19,7,7,20,118,financial
1731,1731,16,22,9,11,153,education
1732,1732,9,15,0,5,93,software
1733,1733,7,25,6,11,119,retail
1734,1734,4,14,9,24,163,education
1735,1735,17,25,2,24,205,software
1736,1736,12,28,2,0,103,education
1737,1737,12,16,6,29,80,pharmaceutical
1738,1738,2,2,6,4,208,financial
1739,1739,0,1,8,1,119,retail
1740,1740,18,6,2,21,56,education
1741,1741,19,0,8,20,77,education
1742,1742,10,29,4,4,139,financial
1743,1743,10,21,1,3,132,pharmaceutical
1744,1744,10,15,7,29,94,education
1745,1745,5,20,6,14,137,software
1746,1746,14,25,5,21,192,software
1747,1747,15,5,7,3,184,retail
1748,1748,7,28,2,8,134,software
1749,1749,13,25,5,8,112,realestate
1750,1750,1,17,8,14,163,retail
1751,1751,4,17,6,0,162,software
1752,1752,16,28,9,5,158,realestate
1753,1753,3,15,1,14,193,education
1754,1754,0,27,7,2,119,pharmaceutical
1755,1755,13,22,2,25,90,retail
1756,1756,12,1,6,11,91,education
1757,1757,0,6,7,29,120,financial
1758,1758,4,8,3,20,186,retail
1759,1759,11,4,4,2,99,education
1760,1760,12,27,5,29,101,retail
1761,1761,0,25,7,28,121,financial
1762,1762,9,7,3,23,46,pharmaceutical
1763,1763,0,28,0,29,119,education
1764,1764,7,9,3,22,122,education
1765,1765,18,12,5,16,65,retail
1766,1766,19,8,0,23,84,software
1767,1767,15,26,6,29,183,financial
1768,1768,10,13,2,2,140,education
1769,1769,19,15,6,10,86,retail
1770,1770,17,2,6,13,196,retail
1771,1771,7,2,6,1,147,financial
1772,1772,2,1,5,27,212,education
1773,1773,11,13,5,7,140,pharmaceutical
1774,1774,16,20,5,11,148,education
1775,1775,8,21,9,26,146,education
1776,1776,3,27,5,24,212,software
1777,1777,7,5,4,1,129,retail
1778,1778,15,8,6,3,183,realestate
1779,1779,12,9,4,27,82,realestate
1780,1780,5,8,3,2,134,software
1781,1781,8,11,8,10,172,pharmaceutical
1782,1782,17,1,7,19,183,pharmaceutical
1783,1783,16,0,8,25,160,realestate
1784,1784,6,19,2,11,52,education
1785,1785,0,13,6,24,119,retail
1786,1786,6,28,0,17,79,financial
1787,1787,3,24,8,8,205,software
1788,1788,19,18,5,13,91,retail
1789,1789,5,12,6,17,134,financial
1790,1790,15,9,6,29,195,financial
1791,1791,2,7,4,15,207,pharmaceutical
1792,1792,1,28,1,17,232,education
1793,1793,3,1,4,1,202,software
1794,1794,13,6,8,24,126,financial
1795,1795,6,9,0,20,52,education
1796,1796,2,20,4,14,215,software
1797,1797,4,14,7,29,183,financial
1798,1798,18,22,9,14,63,financial
1799,1799,2,0,4,1,216,retail
1800,1800,16,24,2,21,158,software
1801,1801,4,8,1,19,177,pharmaceutical
1802,1802,15,9,9,10,220,realestate
1803,1803,17,29,5,3,188,pharmaceutical
1804,1804,10,5,0,20,107,realestate
1805,1805,7,1,5,13,157,realestate
1806,1806,14,28,2,5,185,realestate
1807,1807,3,0,2,16,194,realestate
1808,1808,16,9,7,2,155,education
1809,1809,15,2,9,7,199,retail
1810,1810,0,19,2,27,121,education
1811,1811,1,11,6,2,235,pharmaceutical
1812,1812,18,10,7,12,91,financial
1813,1813,6,20,0,20,71,software
1814,1814,18,0,3,7,102,realestate
1815,1815,11,13,9,6,95,software
1816,1816,14,0,1,5,179,software
1817,1817,1,29,5,22,157,retail
1818,1818,6,20,6,16,85,retail
1819,1819,14,18,6,25,181,financial
1820,1820,18,16,6,22,85,education
1821,1821,4,25,8,9,153,realestate
1822,1822,4,9,9,25,142,financial
1823,1823,19,28,2,25,83,pharmaceutical
1824,1824,13,15,8,2,125,financial
1825,1825,5,6,2,16,119,software
1826,1826,8,1,6,13,158,retail
1827,1827,10,14,5,24,123,retail
1828,1828,1,11,9,14,157,pharmaceutical
1829,1829,8,0,8,2,142,retail
1830,1830,11,10,0,2,136,retail
1831,1831,14,7,1,5,190,financial
1832,1832,11,10,0,22,115,retail
1833,1833,13,8,3,6,139,pharmaceutical
1834,1834,18,11,4,8,58,education
1835,1835,1,15,7,22,179,education
1836,1836,7,8,0,14,154,software
1837,1837,14,20,9,16,192,education
1838,1838,8,17,4,24,112,realestate
1839,1839,16,29,7,4,156,software
1840,1840,8,17,1,9,194,retail
1841,1841,8,24,3,16,183,financial
1842,1842,13,5,1,6,130,financial
1843,1843,1,10,2,8,189,financial
1844,1844,16,0,7,16,147,education
1845,1845,9,29,4,25,51,education
1846,1846,5,25,5,28,95,software
1847,1847,0,10,9,14,119,pharmaceutical
1848,1848,16,25,1,26,149,software
1849,1849,8,17,6,1,157,pharmaceutical
1850,1850,7,26,7,21,165,retail
1851,1851,6,6,5,17,62,retail
1852,1852,3,20,1,22,190,education
1853,1853,12,1,6,17,109,realestate
1854,1854,16,18,8,8,149,software
1855,1855,16,13,2,9,162,retail
1856,1856,13,16,5,25,115,realestate
1857,1857,11,16,8,24,116,retail
1858,1858,9,10,9,7,101,financial
1859,1859,8,18,2,22,158,software
1860,1860,3,2,5,28,205,financial
1861,1861,15,2,5,20,195,education
1862,1862,0,27,6,20,122,software
1863,1863,2,27,2,7,211,retail
1864,1864,18,1,0,9,85,pharmaceutical
1865,1865,3,28,0,19,179,education
1866,1866,19,1,6,14,116,education
1867,1867,9,23,1,24,70,realestate
1868,1868,9,2,0,2,82,software
1869,1869,4,20,2,29,154,education
1870,1870,14,27,0,20,182,pharmaceutical
1871,1871,18,6,2,29,65,realestate
1872,1872,16,29,2,26,155,software
1873,1873,4,29,4,12,170,realestate
1874,1874,0,23,7,26,120,software
1875,1875,2,22,1,1,203,realestate
1876,1876,3,7,5,25,178,pharmaceutical
1877,1877,16,24,9,14,148,education
1878,1878,12,17,8,11,83,realestate
1879,1879,4,11,2,27,166,education
1880,1880,13,26,0,23,132,retail
1881,1881,18,9,9,28,99,software
1882,1882,6,27,6,10,57,education
1883,1883,11,15,7,1,98,retail
1884,1884,7,13,2,2,146,realestate
1885,1885,17,6,7,24,197,financial
1886,1886,13,10,2,9,99,realestate
1887,1887,13,10,0,28,143,software
1888,1888,8,12,5,3,155,financial
1889,1889,5,4,0,2,133,realestate
1890,1890,5,22,3,1,140,financial
1891,1891,9,16,9,22,74,financial
1892,1892,5,7,6,4,111,pharmaceutical
1893,1893,7,0,2,18,165,retail
1894,1894,19,15,1,10,104,pharmaceutical
1895,1895,15,15,9,17,194,education
1896,1896,1,19,2,5,234,retail
1897,1897,2,13,7,24,199,financial
1898,1898,13,23,1,22,118,realestate
1899,1899,16,8,3,5,162,realestate
1900,1900,12,22,1,10,110,education
1901,1901,13,25,0,28,117,education
1902,1902,16,6,1,25,160,realestate
1903,1903,6,25,3,8,53,retail
1904,1904,11,12,5,19,123,software
1905,1905,1,9,9,29,203,pharmaceutical
1906,1906,11,14,4,22,111,software
1907,1907,11,0,7,16,112,pharmaceutical
1908,1908,17,5,7,0,186,financial
1909,1909,15,13,3,3,179,realestate
1910,1910,13,14,4,17,132,financial
1911,1911,15,26,8,7,205,education
1912,1912,8,26,4,5,152,realestate
1913,1913,6,24,0,2,66,financial
1914,1914,7,6,7,8,156,pharmaceutical
1915,1915,16,5,0,21,152,retail
1916,1916,14,0,8,6,192,software
1917,1917,11,2,8,4,115,software
1918,1918,5,25,7,2,111,realestate
1919,1919,17,17,9,5,200,realestate
1920,1920,18,19,4,27,65,education
1921,1921,14,29,9,0,184,financial
1922,1922,4,20,6,1,146,financial
1923,1923,15,5,1,0,180,realestate
1924,1924,4,20,8,14,140,education
1925,1925,6,6,6,24,68,financial
1926,1926,6,7,5,10,66,retail
1927,1927,16,11,4,3,156,retail
1928,1928,13,19,0,10,125,pharmaceutical
1929,1929,10,29,1,22,107,software
1930,1930,14,18,0,0,190,pharmaceutical
1931,1931,2,17,8,12,204,pharmaceutical
1932,1932,8,27,3,29,189,education
1933,1933,2,1,4,5,203,education
1934,1934,6,20,0,19,39,education
1935,1935,16,17,6,27,150,financial
1936,1936,10,19,2,25,116,education
1937,1937,12,29,0,18,95,financial
1938,1938,18,8,1,14,91,realestate
1939,1939,8,5,8,23,159,education
1940,1940,5,18,3,21,117,software
1941,1941,11,8,2,13,121,financial
1942,1942,3,4,6,12,168,software
1943,1943,4,3,4,27,160,retail
1944,1944,9,15,8,19,67,software
1945,1945,6,22,0,8,80,financial
1946,1946,17,10,5,24,194,pharmaceutical
1947,1947,7,6,2,2,160,realestate
1948,1948,7,24,3,12,129,retail
1949,1949,15,25,8,11,208,software
1950,1950,15,5,3,24,193,education
1951,1951,9,0,0,20,82,realestate
1952,1952,4,0,2,16,132,financial
1953,1953,0,19,0,1,121,retail
1954,1954,10,5,3,19,99,realestate
1955,1955,15,25,9,7,196,education
1956,1956,6,2,4,16,76,education
1957,1957,15,15,7,11,192,financial
1958,1958,8,1,3,23,165,retail
1959,1959,13,28,0,28,128,software
1960,1960,17,8,6,5,203,software
1961,1961,6,22,0,4,50,software
1962,1962,11,14,7,24,92,financial
1963,1963,11,14,9,23,136,realestate
1964,1964,1,11,0,7,192,pharmaceutical
1965,1965,2,2,3,0,204,education
1966,1966,5,11,1,1,92,financial
1967,1967,15,8,9,17,210,retail
1968,1968,7,3,2,18,119,retail
1969,1969,16,15,8,0,158,pharmaceutical
1970,1970,11,11,4,12,130,financial
1971,1971,4,6,2,14,174,retail
1972,1972,3,8,0,18,214,pharmaceutical
1973,1973,19,13,7,2,103,software
1974,1974,14,1,7,12,181,financial
1975,1975,19,29,2,9,106,retail
1976,1976,13,12,5,18,110,retail
1977,1977,8,7,1,10,163,software
1978,1978,14,19,5,6,187,retail
1979,1979,15,26,5,18,206,software
1980,1980,4,15,9,8,174,financial
1981,1981,12,21,4,6,96,pharmaceutical
1982,1982,11,2,9,17,104,financial
1983,1983,16,10,3,19,155,software
1984,1984,1,12,1,11,173,retail
1985,1985,9,16,5,13,66,pharmaceutical
1986,1986,14,7,6,2,179,realestate
1987,1987,6,25,3,18,41,financial
1988,1988,8,18,6,20,135,realestate
1989,1989,3,21,3,19,169,financial
1990,1990,6,5,9,4,68,financial
1991,1991,8,26,8,8,186,pharmaceutical
1992,1992,18,25,6,12,52,financial
1993,1993,15,6,5,26,178,retail
1994,1994,19,0,4,23,117,pharmaceutical
1995,1995,11,16,4,12,137,software
1996,1996,6,6,4,8,46,retail
1997,1997,9,4,0,21,49,realestate
1998,1998,15,5,1,24,196,education
1999,1999,11,27,8,25,97,pharmaceutical
